-------------------------------------------------------------------------------
Test set: com.lab5.week5.BubbleSortAppTest
-------------------------------------------------------------------------------
Tests run: 7, Failures: 1, Errors: 0, Skipped: 0, Time elapsed: 0.007 s <<< FAILURE! - in com.lab5.week5.BubbleSortAppTest
Shouldbubblesorttestcase1(com.lab5.week5.BubbleSortAppTest)  Time elapsed: 0.002 s  <<< FAILURE!
org.junit.internal.ArrayComparisonFailure: arrays first differed at element [0]; expected:<4> but was:<1>
	at com.lab5.week5.BubbleSortAppTest.Shouldbubblesorttestcase1(BubbleSortAppTest.java:47)

