c:\Users\tin\Desktop\OOOOP\lab5\week5\src\test\java\com\lab5\week5\AppTest.java
c:\Users\tin\Desktop\OOOOP\lab5\week5\src\test\java\com\lab5\week5\BubbleSortAppTest.java
c:\Users\tin\Desktop\OOOOP\lab5\week5\src\test\java\com\lab5\week5\SelectionSortAppTest.java
